<?xml version="1.0" encoding="UTF-8" standalone="no"?>
<!-- Created with Inkscape (http://www.inkscape.org/) -->

<svg
   xmlns:dc="http://purl.org/dc/elements/1.1/"
   xmlns:cc="http://creativecommons.org/ns#"
   xmlns:rdf="http://www.w3.org/1999/02/22-rdf-syntax-ns#"
   xmlns:svg="http://www.w3.org/2000/svg"
   xmlns="http://www.w3.org/2000/svg"
   xmlns:xlink="http://www.w3.org/1999/xlink"
   xmlns:sodipodi="http://sodipodi.sourceforge.net/DTD/sodipodi-0.dtd"
   xmlns:inkscape="http://www.inkscape.org/namespaces/inkscape"
   width="600"
   height="800"
   id="svg5915"
   version="1.1"
   inkscape:version="0.48.4 r9939"
   sodipodi:docname="blair-junction-logo-with-brush-no-flowers.svg"
   inkscape:export-filename="/media/niccolo/Tokyo/Creating Culture/hacking/Blair Junction/media/blair-junction-icon-48px.png"
   inkscape:export-xdpi="5.708858"
   inkscape:export-ydpi="5.708858">
  <title
     id="title6266">Blair Junction logo</title>
  <defs
     id="defs5917">
    <radialGradient
       inkscape:collect="always"
       xlink:href="#linearGradient7050"
       id="radialGradient4829"
       gradientUnits="userSpaceOnUse"
       gradientTransform="matrix(1,0,0,0.9482742,0,9.464744)"
       cx="79.311195"
       cy="182.97906"
       fx="79.311195"
       fy="182.97906"
       r="10.848755" />
    <linearGradient
       inkscape:collect="always"
       id="linearGradient7050">
      <stop
         style="stop-color:#014004;stop-opacity:1;"
         offset="0"
         id="stop7052" />
      <stop
         style="stop-color:#014004;stop-opacity:0;"
         offset="1"
         id="stop7054" />
    </linearGradient>
    <radialGradient
       inkscape:collect="always"
       xlink:href="#linearGradient7050"
       id="radialGradient4831"
       gradientUnits="userSpaceOnUse"
       gradientTransform="matrix(1,0,0,1.0163886,0,-2.6035962)"
       cx="86.411697"
       cy="158.86601"
       fx="86.411697"
       fy="158.86601"
       r="10.747751" />
    <radialGradient
       inkscape:collect="always"
       xlink:href="#linearGradient7050"
       id="radialGradient4833"
       gradientUnits="userSpaceOnUse"
       gradientTransform="matrix(1,0,0,1.3515481,0,-58.145304)"
       cx="63.26545"
       cy="165.39787"
       fx="63.26545"
       fy="165.39787"
       r="6.9755721" />
    <radialGradient
       inkscape:collect="always"
       xlink:href="#linearGradient7050"
       id="radialGradient4835"
       gradientUnits="userSpaceOnUse"
       gradientTransform="matrix(1,0,0,0.7258778,0,38.759054)"
       cx="62.873631"
       cy="141.39333"
       fx="62.873631"
       fy="141.39333"
       r="9.7329159" />
    <radialGradient
       inkscape:collect="always"
       xlink:href="#linearGradient7050"
       id="radialGradient4837"
       gradientUnits="userSpaceOnUse"
       gradientTransform="matrix(1,0,0,1.1579706,0,-18.783666)"
       cx="59.14267"
       cy="118.90606"
       fx="59.14267"
       fy="118.90606"
       r="6.907371" />
    <radialGradient
       inkscape:collect="always"
       xlink:href="#linearGradient7050"
       id="radialGradient4839"
       gradientUnits="userSpaceOnUse"
       gradientTransform="matrix(1,0,0,0.694891,0,31.30127)"
       cx="77.340126"
       cy="102.59047"
       fx="77.340126"
       fy="102.59047"
       r="8.2550135" />
    <radialGradient
       inkscape:collect="always"
       xlink:href="#linearGradient7050"
       id="radialGradient4841"
       gradientUnits="userSpaceOnUse"
       gradientTransform="matrix(1,0,0,0.977248,0,2.8998903)"
       cx="95.646194"
       cy="127.45675"
       fx="95.646194"
       fy="127.45675"
       r="9.3893833" />
    <radialGradient
       inkscape:collect="always"
       xlink:href="#linearGradient7050"
       id="radialGradient5979"
       gradientUnits="userSpaceOnUse"
       gradientTransform="matrix(1,0,0,0.9482742,0,9.464744)"
       cx="79.311195"
       cy="182.97906"
       fx="79.311195"
       fy="182.97906"
       r="10.848755" />
    <radialGradient
       inkscape:collect="always"
       xlink:href="#linearGradient7050"
       id="radialGradient5987"
       gradientUnits="userSpaceOnUse"
       gradientTransform="matrix(1,0,0,1.0163886,0,-2.6035962)"
       cx="86.411697"
       cy="158.86601"
       fx="86.411697"
       fy="158.86601"
       r="10.747751" />
    <radialGradient
       inkscape:collect="always"
       xlink:href="#linearGradient7050"
       id="radialGradient5995"
       gradientUnits="userSpaceOnUse"
       gradientTransform="matrix(1,0,0,1.3515481,0,-58.145304)"
       cx="63.26545"
       cy="165.39787"
       fx="63.26545"
       fy="165.39787"
       r="6.9755721" />
    <radialGradient
       inkscape:collect="always"
       xlink:href="#linearGradient7050"
       id="radialGradient6003"
       gradientUnits="userSpaceOnUse"
       gradientTransform="matrix(1,0,0,0.7258778,0,38.759054)"
       cx="62.873631"
       cy="141.39333"
       fx="62.873631"
       fy="141.39333"
       r="9.7329159" />
    <radialGradient
       inkscape:collect="always"
       xlink:href="#linearGradient7050"
       id="radialGradient6011"
       gradientUnits="userSpaceOnUse"
       gradientTransform="matrix(1,0,0,1.1579706,0,-18.783666)"
       cx="59.14267"
       cy="118.90606"
       fx="59.14267"
       fy="118.90606"
       r="6.907371" />
    <radialGradient
       inkscape:collect="always"
       xlink:href="#linearGradient7050"
       id="radialGradient6019"
       gradientUnits="userSpaceOnUse"
       gradientTransform="matrix(1,0,0,0.694891,0,31.30127)"
       cx="77.340126"
       cy="102.59047"
       fx="77.340126"
       fy="102.59047"
       r="8.2550135" />
    <radialGradient
       inkscape:collect="always"
       xlink:href="#linearGradient7050"
       id="radialGradient6027"
       gradientUnits="userSpaceOnUse"
       gradientTransform="matrix(1,0,0,0.977248,0,2.8998903)"
       cx="95.646194"
       cy="127.45675"
       fx="95.646194"
       fy="127.45675"
       r="9.3893833" />
    <path
       style="fill:none;stroke:#000000;stroke-width:4.15199995;stroke-linecap:butt;stroke-linejoin:miter;stroke-miterlimit:4;stroke-opacity:1;stroke-dasharray:none"
       d="m 34.442034,64.116124 c 125.654436,10.521398 260.995646,13.991896 434.005646,0 l 0,0"
       id="path4854"
       inkscape:connector-curvature="0"
       sodipodi:nodetypes="ccc" />
    <radialGradient
       inkscape:collect="always"
       xlink:href="#linearGradient7050"
       id="radialGradient6426"
       gradientUnits="userSpaceOnUse"
       gradientTransform="matrix(1,0,0,0.9482742,0,9.464744)"
       cx="79.311195"
       cy="182.97906"
       fx="79.311195"
       fy="182.97906"
       r="10.848755" />
    <radialGradient
       inkscape:collect="always"
       xlink:href="#linearGradient7050"
       id="radialGradient6428"
       gradientUnits="userSpaceOnUse"
       gradientTransform="matrix(1,0,0,1.0163886,0,-2.6035962)"
       cx="86.411697"
       cy="158.86601"
       fx="86.411697"
       fy="158.86601"
       r="10.747751" />
    <radialGradient
       inkscape:collect="always"
       xlink:href="#linearGradient7050"
       id="radialGradient6430"
       gradientUnits="userSpaceOnUse"
       gradientTransform="matrix(1,0,0,1.3515481,0,-58.145304)"
       cx="63.26545"
       cy="165.39787"
       fx="63.26545"
       fy="165.39787"
       r="6.9755721" />
    <radialGradient
       inkscape:collect="always"
       xlink:href="#linearGradient7050"
       id="radialGradient6432"
       gradientUnits="userSpaceOnUse"
       gradientTransform="matrix(1,0,0,0.7258778,0,38.759054)"
       cx="62.873631"
       cy="141.39333"
       fx="62.873631"
       fy="141.39333"
       r="9.7329159" />
    <radialGradient
       inkscape:collect="always"
       xlink:href="#linearGradient7050"
       id="radialGradient6434"
       gradientUnits="userSpaceOnUse"
       gradientTransform="matrix(1,0,0,1.1579706,0,-18.783666)"
       cx="59.14267"
       cy="118.90606"
       fx="59.14267"
       fy="118.90606"
       r="6.907371" />
    <radialGradient
       inkscape:collect="always"
       xlink:href="#linearGradient7050"
       id="radialGradient6436"
       gradientUnits="userSpaceOnUse"
       gradientTransform="matrix(1,0,0,0.694891,0,31.30127)"
       cx="77.340126"
       cy="102.59047"
       fx="77.340126"
       fy="102.59047"
       r="8.2550135" />
    <radialGradient
       inkscape:collect="always"
       xlink:href="#linearGradient7050"
       id="radialGradient6438"
       gradientUnits="userSpaceOnUse"
       gradientTransform="matrix(1,0,0,0.977248,0,2.8998903)"
       cx="95.646194"
       cy="127.45675"
       fx="95.646194"
       fy="127.45675"
       r="9.3893833" />
    <radialGradient
       inkscape:collect="always"
       xlink:href="#linearGradient7050"
       id="radialGradient6560"
       gradientUnits="userSpaceOnUse"
       gradientTransform="matrix(1,0,0,0.9482742,0,9.464744)"
       cx="79.311195"
       cy="182.97906"
       fx="79.311195"
       fy="182.97906"
       r="10.848755" />
    <radialGradient
       inkscape:collect="always"
       xlink:href="#linearGradient7050"
       id="radialGradient6562"
       gradientUnits="userSpaceOnUse"
       gradientTransform="matrix(1,0,0,1.0163886,0,-2.6035962)"
       cx="86.411697"
       cy="158.86601"
       fx="86.411697"
       fy="158.86601"
       r="10.747751" />
    <radialGradient
       inkscape:collect="always"
       xlink:href="#linearGradient7050"
       id="radialGradient6564"
       gradientUnits="userSpaceOnUse"
       gradientTransform="matrix(1,0,0,1.3515481,0,-58.145304)"
       cx="63.26545"
       cy="165.39787"
       fx="63.26545"
       fy="165.39787"
       r="6.9755721" />
    <radialGradient
       inkscape:collect="always"
       xlink:href="#linearGradient7050"
       id="radialGradient6566"
       gradientUnits="userSpaceOnUse"
       gradientTransform="matrix(1,0,0,0.7258778,0,38.759054)"
       cx="62.873631"
       cy="141.39333"
       fx="62.873631"
       fy="141.39333"
       r="9.7329159" />
    <radialGradient
       inkscape:collect="always"
       xlink:href="#linearGradient7050"
       id="radialGradient6568"
       gradientUnits="userSpaceOnUse"
       gradientTransform="matrix(1,0,0,1.1579706,0,-18.783666)"
       cx="59.14267"
       cy="118.90606"
       fx="59.14267"
       fy="118.90606"
       r="6.907371" />
    <radialGradient
       inkscape:collect="always"
       xlink:href="#linearGradient7050"
       id="radialGradient6570"
       gradientUnits="userSpaceOnUse"
       gradientTransform="matrix(1,0,0,0.694891,0,31.30127)"
       cx="77.340126"
       cy="102.59047"
       fx="77.340126"
       fy="102.59047"
       r="8.2550135" />
    <radialGradient
       inkscape:collect="always"
       xlink:href="#linearGradient7050"
       id="radialGradient6572"
       gradientUnits="userSpaceOnUse"
       gradientTransform="matrix(1,0,0,0.977248,0,2.8998903)"
       cx="95.646194"
       cy="127.45675"
       fx="95.646194"
       fy="127.45675"
       r="9.3893833" />
    <radialGradient
       inkscape:collect="always"
       xlink:href="#linearGradient7050"
       id="radialGradient6872"
       gradientUnits="userSpaceOnUse"
       gradientTransform="matrix(1,0,0,0.9482742,0,9.464744)"
       cx="79.311195"
       cy="182.97906"
       fx="79.311195"
       fy="182.97906"
       r="10.848755" />
    <radialGradient
       inkscape:collect="always"
       xlink:href="#linearGradient7050"
       id="radialGradient6874"
       gradientUnits="userSpaceOnUse"
       gradientTransform="matrix(1,0,0,1.0163886,0,-2.6035962)"
       cx="86.411697"
       cy="158.86601"
       fx="86.411697"
       fy="158.86601"
       r="10.747751" />
    <radialGradient
       inkscape:collect="always"
       xlink:href="#linearGradient7050"
       id="radialGradient6876"
       gradientUnits="userSpaceOnUse"
       gradientTransform="matrix(1,0,0,1.3515481,0,-58.145304)"
       cx="63.26545"
       cy="165.39787"
       fx="63.26545"
       fy="165.39787"
       r="6.9755721" />
    <radialGradient
       inkscape:collect="always"
       xlink:href="#linearGradient7050"
       id="radialGradient6878"
       gradientUnits="userSpaceOnUse"
       gradientTransform="matrix(1,0,0,0.7258778,0,38.759054)"
       cx="62.873631"
       cy="141.39333"
       fx="62.873631"
       fy="141.39333"
       r="9.7329159" />
    <radialGradient
       inkscape:collect="always"
       xlink:href="#linearGradient7050"
       id="radialGradient6880"
       gradientUnits="userSpaceOnUse"
       gradientTransform="matrix(1,0,0,1.1579706,0,-18.783666)"
       cx="59.14267"
       cy="118.90606"
       fx="59.14267"
       fy="118.90606"
       r="6.907371" />
    <radialGradient
       inkscape:collect="always"
       xlink:href="#linearGradient7050"
       id="radialGradient6882"
       gradientUnits="userSpaceOnUse"
       gradientTransform="matrix(1,0,0,0.694891,0,31.30127)"
       cx="77.340126"
       cy="102.59047"
       fx="77.340126"
       fy="102.59047"
       r="8.2550135" />
    <radialGradient
       inkscape:collect="always"
       xlink:href="#linearGradient7050"
       id="radialGradient6884"
       gradientUnits="userSpaceOnUse"
       gradientTransform="matrix(1,0,0,0.977248,0,2.8998903)"
       cx="95.646194"
       cy="127.45675"
       fx="95.646194"
       fy="127.45675"
       r="9.3893833" />
  </defs>
  <sodipodi:namedview
     id="base"
     pagecolor="#000000"
     bordercolor="#666666"
     borderopacity="1.0"
     inkscape:pageopacity="0"
     inkscape:pageshadow="2"
     inkscape:zoom="0.98994949"
     inkscape:cx="337.12858"
     inkscape:cy="339.90469"
     inkscape:document-units="px"
     inkscape:current-layer="layer1"
     showgrid="false"
     fit-margin-top="10"
     fit-margin-left="10"
     fit-margin-right="10"
     fit-margin-bottom="10"
     borderlayer="false"
     inkscape:window-width="1920"
     inkscape:window-height="1026"
     inkscape:window-x="0"
     inkscape:window-y="27"
     inkscape:window-maximized="1" />
  <metadata
     id="metadata5920">
    <rdf:RDF>
      <cc:Work
         rdf:about="">
        <dc:format>image/svg+xml</dc:format>
        <dc:type
           rdf:resource="http://purl.org/dc/dcmitype/StillImage" />
        <cc:license
           rdf:resource="http://creativecommons.org/licenses/by-sa/4.0/" />
        <dc:title>Blair Junction logo</dc:title>
        <dc:date>2015-02-07</dc:date>
        <dc:creator>
          <cc:Agent>
            <dc:title>Andrew Toskin</dc:title>
          </cc:Agent>
        </dc:creator>
        <dc:publisher>
          <cc:Agent>
            <dc:title>Cure For Nightmares</dc:title>
          </cc:Agent>
        </dc:publisher>
        <dc:subject>
          <rdf:Bag>
            <rdf:li>map of nevada</rdf:li>
            <rdf:li>Blair Junction</rdf:li>
            <rdf:li>skull</rdf:li>
            <rdf:li>sage brush</rdf:li>
            <rdf:li>web game</rdf:li>
            <rdf:li>murder mystery</rdf:li>
            <rdf:li>old west</rdf:li>
          </rdf:Bag>
        </dc:subject>
      </cc:Work>
      <cc:License
         rdf:about="http://creativecommons.org/licenses/by-sa/3.0/">
        <cc:permits
           rdf:resource="http://creativecommons.org/ns#Reproduction" />
        <cc:permits
           rdf:resource="http://creativecommons.org/ns#Distribution" />
        <cc:requires
           rdf:resource="http://creativecommons.org/ns#Notice" />
        <cc:requires
           rdf:resource="http://creativecommons.org/ns#Attribution" />
        <cc:permits
           rdf:resource="http://creativecommons.org/ns#DerivativeWorks" />
        <cc:requires
           rdf:resource="http://creativecommons.org/ns#ShareAlike" />
      </cc:License>
    </rdf:RDF>
  </metadata>
  <g
     inkscape:label="Layer 1"
     inkscape:groupmode="layer"
     id="layer1"
     transform="translate(-11.700768,-43.5787)">
    <path
       style="fill:none;stroke:#000000;stroke-width:4.15199995;stroke-linecap:butt;stroke-linejoin:miter;stroke-miterlimit:4;stroke-opacity:1;stroke-dasharray:none"
       d="m 121.0785,129.33544 c 125.65444,10.5214 260.99565,13.9919 434.00565,0 l 0,0"
       id="path6036"
       inkscape:connector-curvature="0"
       sodipodi:nodetypes="ccc" />
    <text
       xml:space="preserve"
       style="font-size:11.5px;font-style:normal;font-variant:normal;font-weight:normal;font-stretch:normal;line-height:125%;letter-spacing:0px;word-spacing:0px;fill:#000000;fill-opacity:1;stroke:none;font-family:Crimson Text;-inkscape-font-specification:Crimson Text"
       id="text3038"
       sodipodi:linespacing="125%"
       transform="translate(-1.0101525,109.60155)"><textPath
         xlink:href="#path6036"
         id="textPath3042"
         style="font-size:52px;font-style:normal;font-variant:normal;font-weight:normal;font-stretch:normal;fill:#ffffff;font-family:Cinzel;-inkscape-font-specification:Cinzel">Blair Junction</textPath></text>
    <path
       style="fill:#c40000;fill-opacity:1;fill-rule:evenodd;stroke:none"
       d="M 97.386466,65.219325 C 94.231899,167.0597 90.981404,268.89422 86.980216,370.68808 c -0.397952,9.7298 -2.275106,20.06295 7.75,25.375 151.753474,142.3767 303.966234,284.05572 456.093754,425.875 -2.39781,-4.04881 5.86305,-7.7446 -0.3749,-9.84361 -4.59003,-4.15054 7.22045,-1.91525 5.0624,-6.8437 0.21551,-6.98388 -2.55582,-14.07595 -3.156,-21.1249 -1.5065,-6.68806 -9.89495,-13.74153 -5.5625,-20.21855 -1.56808,-3.57832 -0.59544,-4.58995 0.2501,-7.78115 -4.05897,-2.72744 -1.24424,-7.52202 -4.56285,-10.40685 2.18864,-4.82996 -1.92496,-9.55267 0.25005,-13.78115 -2.98393,-2.9845 6.47323,-3.04726 1.12505,-5.5308 -2.94326,-3.93152 -6.9659,-9.10504 -4.68775,-14.0943 1.97242,-2.66837 -4.72735,-7.12166 0.0627,-9.4375 4.5376,0.94463 7.19504,-5.25527 10.65625,-3.28105 1.98899,-2.42692 10.33878,-3.78217 8.71875,0.0624 3.6319,-2.2493 5.88756,1.34263 9.06245,-1.9374 3.63212,0.0866 8.70393,4.65265 8.375,8.0625 0.95444,1.61995 4.80357,3.8642 7.0312,5.8438 4.34132,-1.59382 9.65192,-1.13621 9.06245,-7.37495 0.64488,-4.24004 3.25993,-7.35177 5.4061,-12.0312 2.5089,-12.10558 -0.39807,-27.31279 -0.0951,-40.60389 -5.27129,-140.4343 -8.99346,-280.90665 -13.70695,-421.36246 -1.13296,-55.04727 -3.29626,-110.01423 -5.2599,-165.033995 -163.91757,10.530926 -345.98535,9.881192 -481.094054,0 z"
       id="rect1707"
       inkscape:connector-curvature="0"
       sodipodi:nodetypes="ccccccccccccccccccccccccc" />
    <g
       id="g4731"
       transform="matrix(2.0891852,0,0,2.0891852,-70.732624,100.94723)">
      <g
         transform="matrix(1.0179344,0.22623777,0.08259657,1.0146814,-9.9798944,24.064165)"
         id="g1695">
        <path
           style="fill:#017b21;fill-opacity:1;fill-rule:evenodd;stroke:#014004;stroke-width:1.25026417;stroke-linecap:butt;stroke-linejoin:miter;stroke-miterlimit:4;stroke-opacity:1;stroke-dasharray:none"
           id="path1676"
           d="m 178.46679,223.03861 c -4.68528,3.40748 -13.20399,-13.20398 -35.77854,-16.61146 -22.57456,-3.40748 -20.44489,17.88927 -31.5192,11.07431 -11.07431,-6.81496 15.33366,-10.64838 15.33366,-10.64838 0,0 -6.81496,0.42594 -11.07431,0 -4.25935,-0.42593 -11.50024,4.25935 -16.611465,4.68529 -5.111221,0.42593 -7.666832,-2.98155 -8.518702,-6.38903 -0.85187,-3.40748 -1.277805,-6.38903 -1.277805,-6.38903 0,0 6.389026,5.53716 9.796507,5.9631 3.407485,0.42593 10.222445,0 10.222445,0 0,0 -5.53716,-2.55561 -9.79651,-5.11123 -4.259351,-2.55561 -8.944637,-6.38902 -8.944637,-6.38902 0,0 -8.092766,4.25935 -15.759597,2.98154 -7.666831,-1.2778 -12.778052,-13.62992 -12.778052,-13.62992 0,0 7.666831,8.94464 13.203987,9.79651 5.537156,0.85187 8.944636,-1.70374 8.944636,-1.70374 0,0 -5.537155,-6.38903 -8.518701,-10.64838 -2.981545,-4.25935 -3.40748,-2.55561 -2.981545,-4.25935 0.425935,-1.70374 0.425935,-3.40748 0.425935,-3.40748 l -5.963091,-2.12967 -3.833416,-4.25936 c 0,0 -5.11122,-5.53715 -5.537156,-8.09276 -0.425935,-2.55561 5.111221,-7.2409 7.240897,-6.38903 2.129675,0.85187 -1.277806,4.25935 -0.851871,7.2409 0.425935,2.98154 7.240896,6.81496 7.240896,6.81496 0,0 -3.40748,-5.96309 -3.40748,-8.5187 0,-2.55561 -0.425935,-3.83342 -0.425935,-3.83342 0,0 0.85187,1.27781 -2.129675,-1.70374 -2.981546,-2.98154 -8.518702,-2.55561 -8.518702,-5.96309 0,-3.40748 -0.425935,-5.11122 -0.425935,-5.11122 0,0 2.129676,2.98155 4.685286,4.68529 2.55561,1.70374 4.685286,1.70374 4.685286,1.70374 0,0 -2.555611,-2.98155 -5.537156,-7.2409 -2.981546,-4.25935 -13.629922,-9.37057 -13.203987,-11.50025 0.425935,-2.12967 1.70374,-4.25935 1.70374,-4.25935 0,0 1.277805,4.25935 5.537156,4.25935 4.259351,0 4.259351,-8.5187 4.259351,-8.5187 0,0 2.55561,7.2409 5.11122,7.2409 2.555611,0 5.537156,-3.83342 5.537156,-3.83342 0,0 -0.85187,8.09277 -2.55561,10.22244 -1.70374,2.12968 -4.259351,4.25936 -2.555611,6.81497 1.703741,2.55561 5.111221,8.94463 5.111221,8.94463 0,0 1.277805,0.85187 2.981546,-2.55561 1.70374,-3.40748 4.25935,-8.94463 1.70374,-12.35211 -2.555611,-3.40749 -5.537156,-5.9631 -5.537156,-5.9631 0,0 3.833416,2.12968 4.685286,1.27781 0.85187,-0.85187 -0.85187,-7.2409 -2.555611,-13.62992 -1.70374,-6.38903 -5.537155,-11.92618 -5.537155,-11.92618 0,0 3.833415,3.40748 10.222441,3.83341 6.389026,0.42594 13.629922,-0.85187 13.629922,-0.85187 0,0 -4.685286,2.12968 -7.240896,2.98155 -2.55561,0.85187 -4.685286,2.12967 -4.685286,2.12967 0,0 5.111221,-0.85187 4.685286,0.85187 -0.425935,1.70374 -6.814961,3.40748 -6.389026,6.38903 0.425935,2.98154 6.814961,-2.55561 11.074312,-4.68529 4.25935,-2.12967 9.796506,-2.12967 9.796506,-2.12967 0,0 -5.537156,7.24089 -8.092766,8.5187 -2.55561,1.2778 -9.370571,4.68528 -9.370571,4.68528 0,0 2.129675,1.70374 4.685285,0.42594 2.555611,-1.27781 4.685286,-3.40748 4.685286,-3.40748 0,0 -1.70374,6.81496 -4.685286,9.37057 -2.981545,2.55561 -5.963091,1.70374 -5.963091,1.70374 0,0 -0.425935,1.27781 -0.425935,4.68529 0,3.40748 -0.85187,5.96309 -0.85187,5.96309 0,0 5.963091,-5.53716 7.240896,-8.09277 1.277805,-2.55561 6.814961,-4.25935 6.814961,-4.25935 l -1.277805,5.11122 6.814961,-6.81496 1.70374,5.11122 c 0,0 0.425935,1.70374 2.981546,1.70374 2.55561,0 3.83342,0.42594 3.83342,0.42594 0,0 -5.963096,1.70374 -11.500251,2.12967 -5.537156,0.42594 -8.518702,-1.2778 -9.370572,0.85187 -0.85187,2.12968 0,3.40748 -2.55561,6.38903 -2.555611,2.98154 -5.111221,11.07431 -5.111221,14.48179 0,3.40748 1.277805,4.25935 1.277805,4.25935 0,0 0,0.42593 2.129676,-3.83342 2.129675,-4.25935 6.814961,-8.94463 6.814961,-8.94463 0,0 -3.407481,9.37057 -4.685286,11.92618 -1.277805,2.55561 -3.407481,5.53716 -1.70374,8.94464 1.70374,3.40748 10.648376,13.20398 14.907727,17.0374 4.25935,3.83341 8.518701,7.24089 8.518701,7.24089 0,0 -2.55561,-4.25935 -0.85187,-6.81496 1.70374,-2.55561 6.81496,2.55561 8.5187,5.53716 1.70374,2.98154 3.40748,6.38903 5.53716,7.2409 2.12967,0.85187 1.70374,0.42593 1.70374,0.42593 l -0.42594,-5.96309 c 0,0 2.55561,3.40748 5.53716,4.25935 2.98154,0.85187 6.81496,1.27781 6.81496,1.27781 0,0 -5.11122,-3.83342 -8.5187,-7.66684 -3.40748,-3.83341 -6.38903,-6.38902 -7.66683,-5.53715 -1.27781,0.85187 -2.55561,3.40748 -4.68529,0.42593 -2.12967,-2.98154 -3.83341,-6.38902 -6.81496,-6.81496 -2.981545,-0.42593 -5.111221,4.25935 -5.111221,4.25935 0,0 -0.85187,-4.68528 -0.85187,-7.66683 0,-2.98154 4.259351,-2.98154 3.407481,-5.11122 -0.851871,-2.12967 -2.981546,-1.70374 -4.685286,-6.81496 -1.70374,-5.11122 -5.963091,-9.37057 -5.963091,-9.37057 0,0 7.240896,6.81496 9.370571,6.38902 2.129676,-0.42593 6.389026,-6.81496 6.389026,-6.81496 0,0 -0.85187,5.11122 -0.85187,10.64838 0,5.53716 0,11.07431 2.55561,11.50025 2.55561,0.42593 1.70374,-4.25935 4.68529,-1.70374 2.98154,2.55561 5.53715,10.22244 8.09276,11.50024 2.55561,1.27781 3.83342,-1.2778 2.55561,-4.68528 -1.2778,-3.40748 -4.68528,-2.98155 -5.11122,-6.81496 -0.42593,-3.83342 0.42594,-5.11122 0.42594,-5.11122 0,0 1.70374,6.38902 3.40748,6.38902 1.70374,0 3.40748,-11.92618 3.40748,-11.92618 0,0 5.96309,8.5187 5.53715,12.77805 -0.42593,4.25935 -4.25935,3.83342 -4.25935,7.2409 0,3.40748 -0.42593,8.94463 1.70374,8.5187 2.12968,-0.42594 5.11122,-7.66683 5.11122,-7.66683 0,0 0.85187,4.25935 2.55561,7.24089 1.70374,2.98155 3.40749,5.9631 3.40749,5.9631 0,0 1.2778,-1.27781 0,-6.81497 -1.27781,-5.53715 -2.98155,-8.5187 -3.40749,-11.50024 -0.42593,-2.98155 1.70374,-6.38903 3.83342,-5.53716 2.12968,0.85187 2.12968,4.25935 1.70374,10.22244 -0.42593,5.96309 -0.85187,12.77806 0.85187,12.77806 1.70374,0 13.62992,2.55561 22.14862,7.66683 8.51871,5.11122 17.46334,9.37057 15.7596,13.20398 z"
           inkscape:connector-curvature="0" />
      </g>
      <use
         y="0"
         xlink:href="#g1695"
         x="0"
         width="744.09448"
         transform="matrix(-1.0000001,0,0,1,320.31251,1.0013565)"
         id="use1704"
         height="496.06299" />
    </g>
    <g
       id="g4713"
       transform="matrix(2.0891852,0,0,2.0891852,-68.931364,158.66247)">
      <path
         sodipodi:nodetypes="ccccccccc"
         inkscape:connector-curvature="0"
         id="path5592-2-3-7"
         d="m 136.95831,99.65135 c 10.97042,-7.512569 25.96375,-9.772384 38.24879,-4.198894 6.26767,2.966743 12.32253,8.368544 12.91131,15.694554 -0.35034,16.65705 -10.57518,36.19707 -11.3841,46.32321 0.10556,6.18385 -5.74058,10.40609 -11.20345,11.77397 -3.87768,1.13709 -8.01967,0.95246 -11.88762,-0.0208 -4.31438,0.0248 -8.26557,-2.87304 -9.65406,-6.93349 -5.10465,-12.1069 -6.34689,-34.02002 -11.57276,-42.57762 -2.31467,-6.90351 0.26652,-14.49295 4.54189,-20.06093 z"
         style="fill:#dbd5cc;fill-opacity:1;stroke:none" />
      <path
         sodipodi:nodetypes="ccsssscccccsssssssssssssssssssssscssssssssssssssssssssssssss"
         inkscape:connector-curvature="0"
         id="path5588-6-8-5"
         d="m 141.02476,155.94191 c -6.96807,-7.45638 -7.84563,-11.64938 -7.80534,-15.86777 2.83514,-3.14268 2.15177,-10.10129 -0.62241,-14.44561 -7.98627,-12.50637 -0.16063,-29.07498 13.52454,-32.90807 13.00627,-3.64293 28.74117,-1.58372 36.1127,4.72603 8.23408,7.04807 10.4249,18.2995 5.42247,27.84827 -3.24729,6.19851 -3.94273,14.41948 -1.21978,14.41948 -1.05123,9.07656 -7.44525,11.70536 -8.20299,16.21183 6.12753,11.13149 -5.77926,11.23107 -7.61569,12.85137 -6.98201,3.81408 -17.24485,3.25733 -23.59345,-1.27993 -9.19622,-2.8 -8.82903,-6.71227 -6.00005,-11.5556 z m 28.42793,10.36466 c 1.36015,-0.8912 2.99236,-2.76024 3.62713,-4.15341 1.42733,-3.13263 1.53723,-8.79372 0.15413,-7.93892 -0.55,0.33992 -1,1.41543 -1,2.39004 0,3.40238 -9.05482,6.2018 -15.93105,4.9253 -5.59286,-1.03826 -8.81303,-3.12633 -9.3158,-6.04071 -0.37363,-2.16581 -0.4299,-2.14401 -1.17627,0.45578 -1.04831,3.65155 1.88937,8.6934 6.45714,11.08218 4.17246,2.18205 13.34177,1.79774 17.18472,-0.72026 z m 0.13049,-18.19848 c 1.1945,-2.5049 2.98469,-4.09637 6.21539,-5.52546 5.77933,-2.55647 6.93432,-5.27982 5.31258,-12.5265 -0.91182,-4.07446 -0.92034,-6.25453 -0.036,-9.2063 0.63733,-2.1272 1.15877,-5.27792 1.15877,-7.00161 0,-1.72369 0.46413,-3.13398 1.03139,-3.13398 1.823,0 2.32688,3.17911 1.2991,8.1964 -1.08624,5.30268 0.0539,7.55293 1.67139,3.29868 2.73228,-7.18647 -0.0254,-17.81273 -5.907,-22.76179 -8.72466,-7.34132 -30.45513,-7.58943 -40.47321,-0.46211 -1.58308,1.12627 -4.01966,4.54075 -5.41461,7.58772 -2.34744,5.12748 -2.45058,5.94846 -1.38539,11.0268 1.82576,8.70436 3.35159,8.82827 2.55034,0.2071 -0.56615,-6.09151 -0.44145,-7.2827 0.72181,-6.89537 0.7734,0.25753 1.47309,1.33095 1.55486,2.3854 0.0818,1.05444 0.57846,4.51944 1.10376,7.69999 0.6193,3.74976 0.60577,7.30932 -0.0385,10.12481 -1.46904,6.41971 -0.46864,8.90753 4.48732,11.15916 2.38855,1.08518 5.27875,3.46853 6.58866,5.43321 2.20029,3.30012 2.71552,3.52867 9.02182,4.00194 8.45523,0.63455 8.52585,0.61037 10.53749,-3.60809 z m -14.68256,-2.06052 c -1.2056,-1.20559 -0.6964,-5.84587 0.89003,-8.11082 1.99825,-2.8529 6.9448,-3.02248 8.40812,-0.28825 1.50303,2.80845 1.32026,9.06574 -0.26482,9.06574 -0.715,0 -1.84,-0.54 -2.5,-1.2 -0.93333,-0.93333 -1.46667,-0.93333 -2.4,0 -1.32773,1.32773 -3.10909,1.55758 -4.13333,0.53333 z m -9.27396,-9.49015 c -3.01486,-1.46137 -5.68659,-7.42554 -4.40179,-9.82621 1.05654,-1.97417 2.18227,-2.45098 8.16078,-3.45652 3.90647,-0.65704 6.8483,1.12264 6.8483,4.14294 0,2.21361 -3.83253,8.13662 -6.02364,9.30926 -2.13211,1.14107 -1.85916,1.15116 -4.58365,-0.16947 z m 21.97537,-2.41438 c -3.52636,-3.73903 -4.46727,-8.27695 -2.11808,-10.2153 1.86447,-1.53841 10.39913,-0.25869 12.30268,1.84471 2.19832,2.42912 1.08953,7.29147 -2.26432,9.9296 -3.43257,2.70007 -4.0108,2.58625 -7.92028,-1.55901 z"
         style="fill:#342d2d;fill-opacity:1" />
    </g>
  </g>
</svg>
